# Copyright 1999-2019 Gentoo Authors
# Distributed under the terms of the GNU General Public License v2

# Unmask the flag which corresponds to ARCH.
-s390

# Unmask ABI flags for this arch.
-abi_s390_32

# Mattéo Rossillol‑‑Laruelle <beatussum@protonmail.com> (2019‑08‑31)
# Dependencies not keyworded.
ayatana

# Andreas Sturmlechner <asturm@gentoo.org> (2019-03-31)
# sys-auth/elogind is not yet keyworded here. bug #681200
elogind

# James Le Cuirot <chewi@gentoo.org> (2017-06-29)
# Unmask as this profile is big endian.
-big-endian

# Stuff we don't want/not tested
R
octave
xindy
lasi
kde
mpi
fuse
lqr
libproxy
tokyocabinet
lpsol
openexr
enchant
fftw
systemd
devil
gts
clang
rtmp
metalink
lucene
valgrind

# This file contains a list of useflags that cannot be used on s390.
bluetooth
pcmcia
cdr
gpm
3dfx
acpi
afs
alsa
apm
lirc
llvm
java
hardened
vaapi
qt5

# Needs java
pdfannotextractor

# no gnome love yet
fits
gconf
gimp
gtk
gtk2
gtk3
gnome
gnome-keyring

diet
m17n-lib
xemacs
Xaw3d
neXt
motif
mono
ocaml
sdl
lm-sensors
wxwidgets

# Many X drivers make no sense on this platform.
input_devices_elographics
input_devices_evdev
input_devices_joystick
input_devices_keyboard
input_devices_mouse
input_devices_vmmouse
input_devices_synaptics
input_devices_wacom
video_cards_amdgpu
video_cards_fbdev
video_cards_geode
video_cards_glint
video_cards_mga
video_cards_nouveau
video_cards_nv
video_cards_r100
video_cards_r128
video_cards_r200
video_cards_r300
video_cards_r600
video_cards_radeon
video_cards_radeonsi

# Chí-Thanh Christopher Nguyễn <chithanh@gentoo.org> (2013-08-22)
# virtual/opencl is not keyworded
opencl

# Unmask once sys-libs/libunwind gets ported & keyworded.
unwind
