# Copyright 1999-2019 Gentoo Authors
# Distributed under the terms of the GNU General Public License v2

# Unmask the flag which corresponds to ARCH.
-sparc

# This file contains a list of useflags that cannot be used on sparc.

# Mattéo Rossillol‑‑Laruelle <beatussum@protonmail.com> (2019‑08‑31)
# Dependency not keyworded (dev-libs/libappindicator).
ayatana

# Sergei Trofimovich <slyfox@gentoo.org> (2018-12-12)
# mongodb is not keyworded on sparc
mongodb

# Andreas Sturmlechner <asturm@gentoo.org> (2018-12-06)
# dev-qt/qtdeclarative-5.11.x is broken and blocks re-keywording of Qt5.
qml

# Sergei Trofimovich <slyfox@gentoo.org> (2017-11-19)
# There is no luajit support on sparc. Bug #554376
luajit
luajittex

# David Seifert <soap@gentoo.org> (2017-07-08)
# Games are not keyworded anymore on sparc
fortune
physfs

# James Le Cuirot <chewi@gentoo.org> (2017-06-29)
# Unmask as this profile is big endian.
-big-endian

# Andreas Sturmlechner <asturm@gentoo.org> (2017-02-25)
# kwallet integration split from kde to distinct flag
kwallet

# Andrey Grozin <grozin@gentoo.org> (2014-06-25)
# keyworded on sparc
-ecls
-sbcl

# Alexandre Rostovtsev <tetromino@gentoo.org> (2012-12-31)
# net-misc/connman is not keyworded, bug 348308
connman

# Alexandre Rostovtsev <tetromino@gentoo.org> (2012-12-31)
# Not keyworded on sparc
xine

# Diego Elio Pettenò <flameeyes@gentoo.org> (2012-08-17)
# qstat is not available on sparc, as it is
nagios-game

# Alexandre Rostovtsev <tetromino@gmail.com> (2011-10-28)
# x11-misc/colord and app-admin/packagekit-base not tested. Bug #387959.
colord
packagekit

# Raúl Porcel <armin76@gentoo.org>
# Stuff that sigbuses
libburn
# bug #266193
srtp
# bug #290154
tokyocabinet
# bug 235685
webkit
# bug 359963
webp

# Gustavo Zacarias <gustavoz@gentoo.org> (2007-02-14)
# Mono needs gcc4 and it's not yet stable
mono

# Gustavo Zacarias <gustavoz@gentoo.org>
# It doesn't even build
d
# LCDproc masks see bug #148072
lcd_devices_g15
lcd_devices_graphlcd
lcd_devices_ula200
# Masking hardened, it isn't really supported, see bugs #144126 #78951
hardened
# AIO is b0rked for now....
aio
romio
# They're borked
dar32
dar64

# Needs java
pdfannotextractor

# Stuff that won't ever work on sparc
3dfx
acpi
afs
apm
battery
dmi
ibm
jfs
libedit
pm-utils
reiser4
reiserfs
xfs

# Need testing
musepack
topal
lqr
indi
chm
ebook
capi
lensfun
jingle
mod_wsgi
vaapi
librtmp
rtmp
vpx
kde
wildmidi
barcode
xmms2
gme
aacplus
soundcloud
devil
gts
clang
metalink
tremor
fdk
tcmalloc
jemalloc
zmq

# No hardware to test
ifp
chipcard
hbci
lm-sensors
openct
bluetooth
dmraid
ipod
ios
mtp
pda
apcupsd
bluray
gps

# Stuff we don't want
ots
frei0r
prelude
redis

# USE-flags from differents origins
brltty
djbfft
dvb
java
lirc
netbeans
networkmanager
pbs
pcmcia
rar
valgrind
wifi
xvmc
zoran

# Other masks
hdf
hdf5

# This should probably never be touched

# Donnie Berkholz <dberkholz@gentoo.org> (2006-02-05)
# Modular X: mask for architectures on which they aren't available
video_cards_nv
video_cards_nouveau

# Matt Turner <mattst88@gentoo.org>
# llvm is not keyworded
video_cards_amdgpu
video_cards_radeonsi

# Diego Pettenò <flameeyes@gentoo.org> (2006-12-06)
# Mask ALSA drivers for ISA cards
alsa_cards_msnd-pinnacle
alsa_cards_hdsp
alsa_cards_hdspm
alsa_cards_sb16
alsa_cards_sbawe
alsa_cards_sscape
alsa_cards_wavefront

# Copied over from default-linux/sparc/sparc64
-vis

# The default on SPARC is non-multilib
# if a sub-profile want's it, it can -use.mask it
multilib

# Ben de Groot <yngwin@gentoo.org> (2009-02-11)
# Both dev-qt/qtphonon and media-sound/phonon are unkeyworded
phonon

# nvidia toolkit for binary drivers
cg

# Chí-Thanh Christopher Nguyễn <chithanh@gentoo.org> (2013-08-22)
# virtual/opencl is not keyworded
opencl

# Unmask once sys-libs/libunwind gets ported & keyworded.
unwind

# Chí-Thanh Christopher Nguyễn <chithanh@gentoo.org> (2013-11-10)
# sys-devel/llvm is not keyworded, bug #320221
llvm

# Pacho Ramos <pacho@gentoo.org> (2014-01-19)
# Unmask systemd since it is keyworded here.
-systemd

# sys-libs/libseccomp has not been ported to this arch yet #524148
seccomp

# Ben de Groot <yngwin@gentoo.org> (2015-02-01)
# please remove when keyworded
qt5
