# Copyright 1999-2019 Gentoo Authors
# Distributed under the terms of the GNU General Public License v2

# NOTE: When masking a USE flag due to missing keywords, please file a keyword
# request bug for the hppa arch.

# Mattéo Rossillol‑‑Laruelle <beatussum@protonmail.com> (2019‑08‑31)
# Dependency not keyworded (dev-libs/libappindicator).
ayatana

# Andreas Sturmlechner <asturm@gentoo.org> (2019-03-31)
# sys-auth/elogind is not yet keyworded here. bug #681200
elogind

# Matt Turner <mattst88@gentoo.org> (2018-05-26)
# Unmask systemd since it is keyworded here.
-systemd

#
# Jeroen Roovers <jer@gentoo.org> (2018-03-22)
# sys-cluster/ceph is not supported
ceph

# Matt Turner <mattst88@gentoo.org> (2018-03-10)
# sys-block/open-iscsi has not been tested on HPPA
iscsi

# Matt Turner <mattst88@gentoo.org> (2018-03-10)
# sys-boot/plymouth has not been tested on HPPA
plymouth

# Matt Turner <mattst88@gentoo.org> (2018-03-10)
# sys-fs/dmraid has not been tested on HPPA
dmraid

# James Le Cuirot <chewi@gentoo.org> (2017-06-29)
# Unmask as this profile is big endian.
-big-endian

# Andreas Sturmlechner <asturm@gentoo.org> (2017-02-25)
# kwallet integration split from kde to distinct flag
kwallet

# Jeroen Roovers <jer@gentoo.org> (2016-01-31)
# USE=xwidgets requires net-libs/webkit-gtk
xwidgets

# Jeroen Roovers <jer@gentoo.org> (2015-10-16)
# HPPA has no NUMA support in the kernel
numa

# Jeroen Roovers <jer@gentoo.org> (2015-02-03)
# app-misc/geoclue has not been tested on HPPA
geoclue

# Jeroen Roovers <jer@gentoo.org> (2015-02-03)
# net-misc/connman has not been tested on HPPA
connman

# Jeroen Roovers <jer@gentoo.org> (2015-01-18)
# No video acceleration is available so video decoding acceleration will not
# work either (bug #536956)
vaapi

# Jeroen Roovers <jer@gentoo.org> (2014-12-24)
# sys-devel/clang has not been ported to HPPA
clang

# Jeroen Roovers <jer@gentoo.org> (2014-11-07)
# dev-lang/luajit has not been ported to HPPA
luajit

# Jeroen Roovers <jer@gentoo.org> (2014-09-30)
# sys-libs/libseccomp has not been ported to HPPA (bug #524148)
seccomp

# Jeroen Roovers <jer@gentoo.org> (2014-09-19)
# >=net-libs/libgadu-1.12.0 (bug #519854) requires dev-libs/protobuf-c (bug #519772)
gadu

# Jeroen Roovers <jer@gentoo.org> (2014-05-20)
# Mask USE=systemtap generally until proper kernel support is in place
systemtap

# Jeroen Roovers <jer@gentoo.org> (2014-05-20)
# USE=tcmalloc needs dev-util/google-perftools
tcmalloc

# Chí-Thanh Christopher Nguyễn <chithanh@gentoo.org> (2013-11-10)
# sys-devel/llvm is not keyworded, bug #320221
llvm

# Jeroen Roovers <jer@gentoo.org> (2013-08-22)
# No known OpenCL providers (bug #482096)
opencl

# Samuli Suominen <ssuominen@gentoo.org> (2013-03-12)
# NVIDIA Cg toolkit for binary drivers
cg

# Jeroen Roovers <jer@gentoo.org> (2012-11-13)
# media-libs/fdk-aac is not supported on HPPA (bug #442806)
fdk

# Jeroen Roovers <jer@gentoo.org> (2012-04-04)
# media-video/vlc is not tested
vlc

# Jeroen Roovers <jer@gentoo.org> (2012-03-27)
# app-i18n/ibus is not tested
ibus

# Jeroen Roovers <jer@gentoo.org> (2012-03-08)
# The crash reporting facility in www-client/firefox does not compile
crashreporter

# Jeroen Roovers <jer@gentoo.org> (2012-01-04)
# dvb is untested on HPPA
dvb

# Jeroen Roovers <jer@gentoo.org> (2012-01-04)
# No support for Blu-ray (bug #397531).
bluray

# Jeroen Roovers <jer@gentoo.org> (2011-09-15)
# Prelude has not been tested on HPPA.
prelude

# Jeroen Roovers <jer@gentoo.org> (2011-06-09)
# Lots of untested dependencies (bug #365451)
facedetect

# Jeroen Roovers <jer@gentoo.org> (2011-05-02)
# No support for CUDA on HPPA
cuda

# Samuli Suominen <ssuominen@gentoo.org> (2010-12-25)
# This will need stable gnome-base/gvfs.
thunar

# Jeroen Roovers <jer@gentoo.org> (2010-10-29)
# Webkit does not work on HPPA right now.
webkit

# Jeroen Roovers <jer@gentoo.org> (2010-07-20)
# Mask USE=gnome entirely (bug #324511)
glade
libnotify
gconf
gnome
gnome-keyring
gnome-online-accounts

# Jeroen Roovers <jer@gentoo.org> (2010-07-19)
# Masked because of missing gnome-base/gnome-panel
# dependency (bug #324511)
applet

# Jeroen Roovers <jer@gentoo.org> (2010-07-10)
# No known hardware support for video decoding
vaapi
vdpau

# Jeroen Roovers <jer@gentoo.org> (2010-07-01)
# Drop support for ghc and darcs
darcs

# Jeroen Roovers <jer@gentoo.org> (2010-04-05)
# Mask USE=kde (bug #304363).
kde

# Jeroen Roovers <jer@gentoo.org> (2010-02-28)
# app-accessibility/flite does not work (bug #307241)
flite

# Jeroen Roovers <jer@gentoo.org> (2009-08-04)
# net-misc/wicd and sys-power/pm-utils are currently not supported (bug #280312)
pm-utils

# Unmask the flag which corresponds to ARCH.
-hppa

# Jeroen Roovers <jer@gentoo.org> (2008-06-07)
# dev-util/valgrind has not been ported to HPPA.
valgrind

# Jeroen Roovers <jer@gentoo.org> (2008-01-04)
# Bug 179895: HPPA's gcc cannot build native code / lacking upstream support
ocamlopt

# Jeroen Roovers <jer@gentoo.org> (2007-05-17)
# sys-devel/gcc fails to build with USE=d (bug #178896).
d

# Jeroen Roovers <jer@gentoo.org> (2007-05-02)
# Lack of user/dev support for WiFi (bug #176517)
networkmanager

# Jeroen Roovers <jer@gentoo.org> (2007-04-07)
# libffi has not been ported to hppa, therefore gcc fails to build with USE=gcj
gcj

# Samuli Suominen <drac@gentoo.org> (2007-03-02)
# See https://bugs.gentoo.org/show_bug.cgi?id=157881#c3
battery

# Saleem Abdulrasool <compnerd@gentoo.org> (2006-08-18)
# dvdr hardware not available - masking with permission from GMsoft
dvdr

# Jeroen Roovers <jer@gentoo.org> (2006-05-25)
# libemf is not ported to hppa
emf

# Guy Martin <gmsoft@gentoo.org> (2006-05-25)
# libaio is not ported on hppa
aio

# Saleem Abdulrasool <compnerd@gentoo.org> (2006-04-26)
# sys-apps/dmidecode: masking with vapier's blessings
dmi

# Donnie Berkholz <dberkholz@gentoo.org> (2006-03-07)
# Modular X: mask for architectures lacking direct rendering
dri

# Donnie Berkholz <dberkholz@gentoo.org> (2006-02-05)
# Modular X: mask for architectures on which they aren't available
video_cards_amdgpu
video_cards_glint
video_cards_mga
video_cards_nouveau
video_cards_nv
video_cards_r100
video_cards_r128
video_cards_r200
video_cards_r300
video_cards_r600
video_cards_radeon
video_cards_radeonsi

# Guy Martin <gmsoft@gentoo.org> (2005-07-25)
# lm-sensors not supported on hppa and ieee1394 not tested
lm-sensors
iec61883
ieee1394

# Guy Martin <gmsoft@gentoo.org> (2005-06-25)
# mono is not yet supported on hppa
mono

# Guy Martin <gmsoft@gentoo.org> (2005-02-18)
# No emboss support on hppa for now
emboss

# Guy Martin <gmsoft@gentoo.org> (2004-08-08)
# Wifi stuff not test yet because of lack of hardware
wifi

# Guy Martin <gmsoft@gentoo.org> (2003-02-26)
# No lirc support on hppa
lirc

# Guy Martin <gmsoft@gentoo.org> (2003-07-22)
# Scanner and gphoto2 not yet tested
gphoto2
scanner

# Guy Martin <gmsoft@gentoo.org> (2003-04-13)
# Selinux patches not tested on hppa and no kernel sources are emergeables with this patch.
selinux

# Guy Martin <gmsoft@gentoo.org> (2003-03-20)
# Many java apps need java => 1.3 and hppa has only 1.1 right now
java

# Ciaran McCreesh <ciaranm@gentoo.org> (2005-01-05)
# No reliable java, no netbeans. bug 66762
netbeans

# Guy Martin <gmsoft@gentoo.org> (2003-03-14)
# USE flags not related to hppa
acpi
apm
afs
pcmcia
pda

# see email to gentoo-dev with subject "use.mask and PHP5's crazy IUSE"
# Dated Sat, 31 Jul 2004 14:49:28 -0700, from robbat2@gentoo.org
# all of these are binary-only, and not presently available on this
# architecture.
ibm
djbfft

# Added because of xmms-plugin.eclass.  Please test out
# media-sound/beep-media-player and remove if
bmp
3dfx
